<?xml version="1.0" encoding="UTF-8"?>
<Project>
   <description></description>
   <name>mekdidailyao-pnm</name>
   <tag></tag>
   <UUID>b94866e4-bc5b-4d77-83b3-d88e9e97ed60</UUID>
   <createdVersion>9.3.1</createdVersion>
   <freeLicense>false</freeLicense>
   <migratedVersion>5.9.0</migratedVersion>
   <modifiedEdition>ENTERPRISE</modifiedEdition>
   <modifiedVersion>9.3.2</modifiedVersion>
   <pageLoadTimeout>0</pageLoadTimeout>
   <projectFileLocation>C:\Users\user\Documents\mekdidailyao-pnm\mekdidailyao-pnm.prj</projectFileLocation>
   <sourceContent>
      <sourceFolderList>
         <sourceFolderConfiguration>
            <url>Include/scripts/groovy</url>
         </sourceFolderConfiguration>
      </sourceFolderList>
      <systemFolderList>
         <systemFolderConfiguration>
            <url>Include/scripts/groovy</url>
         </systemFolderConfiguration>
         <systemFolderConfiguration>
            <url>Include/features</url>
         </systemFolderConfiguration>
         <systemFolderConfiguration>
            <url>Include/config</url>
         </systemFolderConfiguration>
      </systemFolderList>
   </sourceContent>
   <timeStampInProperties>false</timeStampInProperties>
   <type>GENERIC</type>
</Project>
